INDEX VERSION 1.131+C:\Users\User\Wipro_Project\PROGRAMMING-PART\BackendWork\.metadata\.plugins\org.eclipse.jdt.core
3094339620.index
21126946.index
2830487568.index
2092459683.index
3993779873.index
1582109228.index
1441461655.index
4188206593.index
340773724.index
3348683376.index
3899575100.index
3335618730.index
2943032007.index
3382661033.index
4102611905.index
956044602.index
1604276560.index
3070952361.index
886567334.index
2149363436.index
1636214450.index
4155827685.index
245998469.index
1063020374.index
156863953.index
1423801541.index
2489582747.index
3801106495.index
609273652.index
2302438904.index
1388518177.index
1865797976.index
3612507560.index
953259189.index
507784096.index
2906591308.index
647493812.index
3012098313.index
3423446084.index
1516631182.index
2143250615.index
2737876694.index
3561010844.index
849210417.index
3642941785.index
632926705.index
3807651637.index
3324218209.index
272678977.index
2663105395.index
2282295039.index
1652182275.index
2814624431.index
1506542436.index
2272015629.index
2398101706.index
2733779151.index
2641527193.index
1214111922.index
2766347202.index
1752034394.index
2451900256.index
2380209849.index
346864033.index
3597831373.index
2189037161.index
1915427771.index
836339463.index
1381455627.index
397760556.index
2207883994.index
997686510.index
2448847683.index
1906530226.index
1491480970.index
870593549.index
904581221.index
89983189.index
2555676955.index
1622331885.index
1427923059.index
3244463372.index
2084300444.index
3156982130.index
273828990.index
3162337553.index
3404554751.index
3728241069.index
4106351184.index
2933002889.index
4178185177.index
2395156558.index
2674140730.index
564287236.index
818783910.index
700951465.index
1401536422.index
2565039313.index
193350515.index
700671905.index
2301268158.index
2886180373.index
1978613731.index
292972605.index
3056194015.index
2805720310.index
2614565534.index
792930066.index
3928232608.index
769770214.index
3824625310.index
1807349190.index
1850729587.index
3521271424.index
2783105699.index
2011138079.index
4195930830.index
3287308929.index
1640443334.index
90880384.index
1585408704.index
2763083916.index
3180091794.index
1133068790.index
2537177758.index
3894493046.index
2702079664.index
2538344841.index
3444120513.index
2874056854.index
3903097545.index
3586572009.index
3212503176.index
1177466301.index
3764969271.index
2753344897.index
531262840.index
2242541520.index
1172084306.index
1544871931.index
189075057.index
1755745741.index
1129797327.index
3172424917.index
3413725848.index
689563948.index
4120565087.index
3197977530.index
62201922.index
3508816617.index
1840984761.index
2798916845.index
2445786002.index
3909502927.index
2840863611.index
3275260891.index
1637141385.index
4052013157.index
4054976300.index
3450049096.index
4235109206.index
3832301697.index
486631116.index
1041805807.index
3215479210.index
4055587694.index
2699674872.index
4119030272.index
430361667.index
2340941626.index
3904244969.index
3480143448.index
2965500689.index
3771852249.index
1878069225.index
1597189869.index
3337050432.index
782143578.index
3112176151.index
501646094.index
1378092373.index
60218501.index
3555182927.index
1616295301.index
